<?xml version="1.0" encoding="UTF-8"?>
<glyph name="_part.Ency3" format="2">
	<advance width="963"/>
	<outline>
		<contour>
			<point x="94" y="700" type="line"/>
			<point x="94" y="652" type="line"/>
			<point x="148" y="651"/>
			<point x="191" y="535"/>
			<point x="191" y="350" type="curve" smooth="yes"/>
			<point x="191" y="29"/>
			<point x="0" y="29"/>
			<point x="0" y="29" type="curve"/>
			<point x="0" y="0" type="line"/>
			<point x="453" y="0" type="line"/>
			<point x="453" y="29" type="line"/>
			<point x="423" y="29"/>
			<point x="356" y="58"/>
			<point x="356" y="155" type="curve" smooth="yes"/>
			<point x="356" y="262"/>
			<point x="422" y="281"/>
			<point x="464" y="282" type="curve"/>
			<point x="506" y="281"/>
			<point x="572" y="262"/>
			<point x="572" y="155" type="curve" smooth="yes"/>
			<point x="572" y="58"/>
			<point x="505" y="29"/>
			<point x="475" y="29" type="curve"/>
			<point x="475" y="0" type="line"/>
			<point x="938" y="0" type="line"/>
			<point x="938" y="29" type="line"/>
			<point x="938" y="29"/>
			<point x="747" y="29"/>
			<point x="747" y="350" type="curve" smooth="yes"/>
			<point x="747" y="671"/>
			<point x="938" y="671"/>
			<point x="938" y="671" type="curve"/>
			<point x="938" y="700" type="line"/>
			<point x="475" y="700" type="line"/>
			<point x="475" y="671" type="line"/>
			<point x="505" y="671"/>
			<point x="572" y="642"/>
			<point x="572" y="544" type="curve" smooth="yes"/>
			<point x="572" y="438"/>
			<point x="506" y="418"/>
			<point x="464" y="418" type="curve" smooth="yes"/>
			<point x="422" y="418"/>
			<point x="356" y="438"/>
			<point x="356" y="544" type="curve" smooth="yes"/>
			<point x="356" y="642"/>
			<point x="423" y="671"/>
			<point x="453" y="671" type="curve"/>
			<point x="453" y="700" type="line"/>
		</contour>
		<contour>
			<point x="54" y="700" type="line"/>
			<point x="54" y="652" type="line"/>
			<point x="94" y="652" type="line"/>
			<point x="94" y="700" type="line"/>
		</contour>
	</outline>
	<lib>
		<dict>
			<key>com.schriftgestaltung.Glyphs.Export</key>
			<false/>
			<key>com.schriftgestaltung.Glyphs.rightMetricsKey</key>
			<string>En-cy</string>
		</dict>
	</lib>
</glyph>
