<?xml version="1.0" encoding="UTF-8"?>
<glyph name="cacute.ss01" format="2">
	<advance width="494"/>
	<outline>
		<component base="c.ss01"/>
		<component base="acutecomb" xOffset="85"/>
	</outline>
</glyph>
