<?xml version="1.0" encoding="UTF-8"?>
<glyph name="Emacron" format="2">
	<advance width="809"/>
	<unicode hex="0112"/>
	<outline>
		<component base="E"/>
		<component base="uni0304.case" xOffset="225"/>
	</outline>
</glyph>
