<?xml version="1.0" encoding="UTF-8"?>
<glyph name="f_f.ss01" format="2">
	<advance width="927"/>
	<outline>
		<contour>
			<point x="760" y="770" type="curve"/>
			<point x="661" y="770"/>
			<point x="564" y="694"/>
			<point x="562" y="500" type="curve"/>
			<point x="481" y="500"/>
			<point x="442" y="550"/>
			<point x="442" y="550" type="curve"/>
			<point x="413" y="550" type="line"/>
			<point x="413" y="550"/>
			<point x="401" y="500"/>
			<point x="292" y="500" type="curve"/>
			<point x="295" y="634"/>
			<point x="334" y="661"/>
			<point x="366" y="661" type="curve"/>
			<point x="413" y="661"/>
			<point x="413" y="629"/>
			<point x="413" y="583" type="curve"/>
			<point x="426" y="583"/>
			<point x="442" y="583"/>
			<point x="442" y="583" type="curve"/>
			<point x="442" y="705"/>
			<point x="413" y="770"/>
			<point x="306" y="770" type="curve"/>
			<point x="207" y="770"/>
			<point x="132" y="694"/>
			<point x="130" y="500" type="curve"/>
			<point x="49" y="500"/>
			<point x="49" y="550"/>
			<point x="49" y="550" type="curve"/>
			<point x="20" y="550" type="line"/>
			<point x="20" y="345" type="line"/>
			<point x="49" y="345" type="line"/>
			<point x="49" y="345"/>
			<point x="49" y="396"/>
			<point x="130" y="396" type="curve"/>
			<point x="130" y="363"/>
			<point x="130" y="303"/>
			<point x="130" y="265" type="curve"/>
			<point x="130" y="29"/>
			<point x="10" y="29"/>
			<point x="10" y="29" type="curve"/>
			<point x="10" y="0" type="line"/>
			<point x="412" y="0" type="line"/>
			<point x="412" y="29" type="line"/>
			<point x="412" y="29"/>
			<point x="292" y="21"/>
			<point x="292" y="342" type="curve"/>
			<point x="292" y="349"/>
			<point x="292" y="370"/>
			<point x="292" y="396" type="curve"/>
			<point x="401" y="396"/>
			<point x="413" y="345"/>
			<point x="413" y="345" type="curve"/>
			<point x="442" y="345" type="line"/>
			<point x="442" y="345"/>
			<point x="481" y="396"/>
			<point x="562" y="396" type="curve"/>
			<point x="562" y="363"/>
			<point x="562" y="303"/>
			<point x="562" y="265" type="curve"/>
			<point x="562" y="29"/>
			<point x="442" y="29"/>
			<point x="442" y="29" type="curve"/>
			<point x="442" y="0" type="line"/>
			<point x="844" y="0" type="line"/>
			<point x="844" y="29" type="line"/>
			<point x="844" y="29"/>
			<point x="724" y="21"/>
			<point x="724" y="342" type="curve"/>
			<point x="724" y="349"/>
			<point x="724" y="370"/>
			<point x="724" y="396" type="curve"/>
			<point x="833" y="396"/>
			<point x="833" y="345"/>
			<point x="833" y="345" type="curve"/>
			<point x="862" y="345" type="line"/>
			<point x="862" y="550" type="line"/>
			<point x="833" y="550" type="line"/>
			<point x="833" y="550"/>
			<point x="833" y="500"/>
			<point x="724" y="500" type="curve"/>
			<point x="727" y="634"/>
			<point x="801" y="661"/>
			<point x="833" y="661" type="curve"/>
			<point x="880" y="661"/>
			<point x="888" y="629"/>
			<point x="888" y="583" type="curve"/>
			<point x="901" y="583"/>
			<point x="917" y="583"/>
			<point x="917" y="583" type="curve"/>
			<point x="917" y="705"/>
			<point x="867" y="770"/>
		</contour>
	</outline>
	<lib>
		<dict>
			<key>com.schriftgestaltung.Glyphs.leftMetricsKey</key>
			<string>f.ss01</string>
			<key>com.schriftgestaltung.Glyphs.rightMetricsKey</key>
			<string>f.ss01</string>
		</dict>
	</lib>
</glyph>
