<?xml version="1.0" encoding="UTF-8"?>
<glyph name="H_A_H.liga" format="2">
	<advance width="2534"/>
	<outline>
		<component base="_part.H"/>
		<component base="_part.AA2" xOffset="836"/>
		<component base="_part.H2" xOffset="1571"/>
	</outline>
	<lib>
		<dict>
			<key>com.schriftgestaltung.Glyphs.ComponentInfo</key>
			<array>
				<dict>
					<key>alignment</key>
					<integer>-1</integer>
					<key>index</key>
					<integer>0</integer>
					<key>name</key>
					<string>_part.H</string>
				</dict>
				<dict>
					<key>alignment</key>
					<integer>-1</integer>
					<key>index</key>
					<integer>1</integer>
					<key>name</key>
					<string>_part.AA2</string>
				</dict>
				<dict>
					<key>alignment</key>
					<integer>-1</integer>
					<key>index</key>
					<integer>2</integer>
					<key>name</key>
					<string>_part.H2</string>
				</dict>
			</array>
			<key>com.schriftgestaltung.Glyphs.leftMetricsKey</key>
			<string>H</string>
			<key>com.schriftgestaltung.Glyphs.rightMetricsKey</key>
			<string>H</string>
		</dict>
	</lib>
</glyph>
