<?xml version="1.0" encoding="UTF-8"?>
<glyph name="I_A_A.liga" format="2">
	<advance width="2062"/>
	<outline>
		<component base="_part.I"/>
		<component base="_part.AA2" xOffset="452"/>
		<component base="_part.AA3" xOffset="1182"/>
	</outline>
	<lib>
		<dict>
			<key>com.schriftgestaltung.Glyphs.ComponentInfo</key>
			<array>
				<dict>
					<key>alignment</key>
					<integer>-1</integer>
					<key>index</key>
					<integer>0</integer>
					<key>name</key>
					<string>_part.I</string>
				</dict>
				<dict>
					<key>alignment</key>
					<integer>-1</integer>
					<key>index</key>
					<integer>1</integer>
					<key>name</key>
					<string>_part.AA2</string>
				</dict>
				<dict>
					<key>alignment</key>
					<integer>-1</integer>
					<key>index</key>
					<integer>2</integer>
					<key>name</key>
					<string>_part.AA3</string>
				</dict>
			</array>
			<key>com.schriftgestaltung.Glyphs.leftMetricsKey</key>
			<string>I</string>
			<key>com.schriftgestaltung.Glyphs.rightMetricsKey</key>
			<string>A</string>
		</dict>
	</lib>
</glyph>
