<?xml version="1.0" encoding="UTF-8"?>
<glyph name="Scedilla" format="2">
	<advance width="688"/>
	<unicode hex="015E"/>
	<outline>
		<component base="S"/>
		<component base="uni0327.case" xOffset="117"/>
	</outline>
</glyph>
