<?xml version="1.0" encoding="UTF-8"?>
<glyph name="u1F763" format="2">
	<advance width="875"/>
	<unicode hex="1F763"/>
	<outline>
		<contour>
			<point x="25" y="582" type="curve" smooth="yes"/>
			<point x="25" y="672"/>
			<point x="107" y="712"/>
			<point x="190" y="712" type="curve" smooth="yes"/>
			<point x="301" y="712"/>
			<point x="421" y="653"/>
			<point x="420" y="500" type="curve" smooth="yes"/>
			<point x="419" y="357"/>
			<point x="285" y="270"/>
			<point x="285" y="184" type="curve" smooth="yes"/>
			<point x="285" y="142"/>
			<point x="318" y="111"/>
			<point x="367" y="111" type="curve" smooth="yes"/>
			<point x="520" y="111"/>
			<point x="659" y="348"/>
			<point x="659" y="500" type="curve" smooth="yes"/>
			<point x="659" y="568"/>
			<point x="631" y="608"/>
			<point x="590" y="608" type="curve" smooth="yes"/>
			<point x="549" y="608"/>
			<point x="536" y="571"/>
			<point x="536" y="556" type="curve" smooth="yes"/>
			<point x="536" y="541"/>
			<point x="540" y="514"/>
			<point x="576" y="492" type="curve"/>
			<point x="546" y="449" type="line"/>
			<point x="486" y="480"/>
			<point x="455" y="537"/>
			<point x="455" y="582" type="curve" smooth="yes"/>
			<point x="455" y="672"/>
			<point x="537" y="712"/>
			<point x="620" y="712" type="curve" smooth="yes"/>
			<point x="731" y="712"/>
			<point x="850" y="633"/>
			<point x="850" y="500" type="curve" smooth="yes"/>
			<point x="850" y="236"/>
			<point x="646" y="-20"/>
			<point x="377" y="-20" type="curve" smooth="yes"/>
			<point x="184" y="-20"/>
			<point x="90" y="96"/>
			<point x="90" y="184" type="curve" smooth="yes"/>
			<point x="90" y="307"/>
			<point x="228" y="357"/>
			<point x="229" y="500" type="curve" smooth="yes"/>
			<point x="229" y="568"/>
			<point x="201" y="608"/>
			<point x="160" y="608" type="curve" smooth="yes"/>
			<point x="119" y="608"/>
			<point x="106" y="571"/>
			<point x="106" y="556" type="curve" smooth="yes"/>
			<point x="106" y="541"/>
			<point x="110" y="514"/>
			<point x="146" y="492" type="curve"/>
			<point x="116" y="449" type="line"/>
			<point x="56" y="480"/>
			<point x="25" y="537"/>
		</contour>
	</outline>
</glyph>
