<?xml version="1.0" encoding="UTF-8"?>
<glyph name="uni021B.ss01" format="2">
	<advance width="414"/>
	<outline>
		<component base="t.ss01"/>
		<component base="uni0326" xOffset="278" yOffset="10"/>
	</outline>
</glyph>
