<?xml version="1.0" encoding="UTF-8"?>
<glyph name="uni0122" format="2">
	<advance width="795"/>
	<unicode hex="0122"/>
	<outline>
		<component base="G"/>
		<component base="uni0326" xOffset="324"/>
	</outline>
</glyph>
