<?xml version="1.0" encoding="UTF-8"?>
<glyph name="uni264E" format="2">
	<advance width="789"/>
	<unicode hex="264E"/>
	<outline>
		<contour>
			<point x="300" y="225" type="curve"/>
			<point x="300" y="340" type="line"/>
			<point x="55" y="344"/>
			<point x="54" y="365"/>
			<point x="54" y="365" type="curve"/>
			<point x="25" y="365" type="line"/>
			<point x="25" y="195" type="line"/>
			<point x="54" y="195" type="line"/>
			<point x="54" y="195"/>
			<point x="55" y="220"/>
		</contour>
		<contour>
			<point x="300" y="225" type="curve"/>
			<point x="300" y="340" type="line"/>
			<point x="55" y="344"/>
			<point x="54" y="365"/>
			<point x="54" y="365" type="curve"/>
			<point x="25" y="365" type="line"/>
			<point x="25" y="195" type="line"/>
			<point x="54" y="195" type="line"/>
			<point x="54" y="195"/>
			<point x="55" y="220"/>
		</contour>
		<contour>
			<point x="25" y="0" type="line"/>
			<point x="54" y="0" type="line"/>
			<point x="54" y="0"/>
			<point x="54" y="31"/>
			<point x="393" y="31" type="curve"/>
			<point x="732" y="31"/>
			<point x="732" y="0"/>
			<point x="732" y="0" type="curve"/>
			<point x="761" y="0" type="line"/>
			<point x="761" y="170" type="line"/>
			<point x="732" y="170" type="line"/>
			<point x="732" y="170"/>
			<point x="732" y="144"/>
			<point x="393" y="144" type="curve"/>
			<point x="54" y="144"/>
			<point x="54" y="170"/>
			<point x="54" y="170" type="curve"/>
			<point x="25" y="170" type="line"/>
		</contour>
		<contour>
			<point x="486" y="340" type="curve"/>
			<point x="486" y="225" type="line"/>
			<point x="731" y="220"/>
			<point x="732" y="195"/>
			<point x="732" y="195" type="curve"/>
			<point x="761" y="195" type="line"/>
			<point x="761" y="365" type="line"/>
			<point x="732" y="365" type="line"/>
			<point x="732" y="365"/>
			<point x="731" y="344"/>
		</contour>
		<contour>
			<point x="74" y="484" type="curve" smooth="yes"/>
			<point x="74" y="399"/>
			<point x="122" y="331"/>
			<point x="176" y="284" type="curve" smooth="yes"/>
			<point x="211" y="254"/>
			<point x="254" y="237"/>
			<point x="300" y="225" type="curve"/>
			<point x="300" y="340" type="line"/>
			<point x="250" y="367"/>
			<point x="213" y="417"/>
			<point x="213" y="484" type="curve" smooth="yes"/>
			<point x="213" y="588"/>
			<point x="302" y="654"/>
			<point x="393" y="654" type="curve" smooth="yes"/>
			<point x="484" y="654"/>
			<point x="573" y="588"/>
			<point x="573" y="484" type="curve" smooth="yes"/>
			<point x="573" y="417"/>
			<point x="536" y="367"/>
			<point x="486" y="340" type="curve"/>
			<point x="486" y="225" type="line"/>
			<point x="532" y="237"/>
			<point x="575" y="254"/>
			<point x="610" y="284" type="curve" smooth="yes"/>
			<point x="664" y="331"/>
			<point x="712" y="399"/>
			<point x="712" y="484" type="curve" smooth="yes"/>
			<point x="712" y="657"/>
			<point x="546" y="772"/>
			<point x="393" y="772" type="curve" smooth="yes"/>
			<point x="240" y="772"/>
			<point x="74" y="657"/>
		</contour>
	</outline>
</glyph>
